Chapter 5 Visualizations | STAT 454 Bayesian Statistics - Pet Adoption
…
5.3.2 The mysterious Breed 307

When I’m exploring breed, breed 307 seems to be the most common. We can also see that breed 307 is more likely to get adopted slower than other breeds.
It turns out this is mixed breed! This makes sense since people might not consider mixed breed animals as attractive.

adoption %>%
  count(Breed1) %>% 
  arrange(desc(n))

## # A tibble: 176 x 2
##    Breed1     n
##     <dbl> <int>
##  1    307  5927
##  2    266  3634
##  3    265  1258
##  4    299   342
##  5    264   296
##  6    292   264
##  7    285   221
##  8    141   205
##  9    205   190
## 10    179   167
## # ... with 166 more rows
…
